{
  "page": 1,
  "total_results": 173,
  "total_pages": 9,
  "results": [
    {
      "vote_count": 4,
      "id": 168994,
      "video": false,
      "vote_average": 7.5,
      "title": "Army",
      "popularity": 1.00432,
      "poster_path": "/xFhBABJiWyHs9MVQq997rawm1jG.jpg",
      "original_language": "ja",
      "original_title": "Rikugun",
      "genre_ids": [
        18
      ],
      "backdrop_path": "/6RH6waIcVAdQiIC12QI07e0mWCW.jpg",
      "adult": false,
      "overview": "A widow raises her sickly son to be strong enough to join the army and fight on the front lines.",
      "release_date": "1944-12-07"
    },
    {
      "vote_count": 772,
      "id": 766,
      "video": false,
      "vote_average": 7.3,
      "title": "Army of Darkness",
      "popularity": 4.724019,
      "poster_path": "/2eZKDIwLNnySbwqQtAaUz0kYDIL.jpg",
      "original_language": "en",
      "original_title": "Army of Darkness",
      "genre_ids": [
        14,
        27,
        35
      ],
      "backdrop_path": "/j7ctTLHSOrvY6fl63CjBNbmkTWq.jpg",
      "adult": false,
      "overview": "A man is accidentally transported to 1300 A.D., where he must battle an army of the dead and retrieve the Necronomicon so he can return home.",
      "release_date": "1992-10-09"
    },
    {
      "vote_count": 1,
      "id": 160261,
      "video": false,
      "vote_average": 5,
      "title": "Army",
      "popularity": 1.018243,
      "poster_path": "/bLW1caua8Qv1fMtdlK9fBU3rmlk.jpg",
      "original_language": "hi",
      "original_title": "Army",
      "genre_ids": [],
      "backdrop_path": null,
      "adult": false,
      "overview": "Arjun and Geeta are a young couple, who are deeply in love with each other. They get married, and soon are proud parents. Arjun gets in the bad books of a notorious gangster named Nagraj, and is brutally killed. When Geeta finds out she decides to avenge Arjun's death. When Nagraj finds out that Geeta is out for vengeance, he scoffs at her, refusing to believe that a lone defenseless widow can do him any harm. But Nagraj is in for a surprise when he comes face to face with Geeta and a group of young men who are dedicated to bring him down - even if they die trying.",
      "release_date": "1996-01-19"
    },
    {
      "vote_count": 717,
      "id": 347031,
      "video": false,
      "vote_average": 6.8,
      "title": "Swiss Army Man",
      "popularity": 3.830508,
      "poster_path": "/9BdJz7b4WdJul0KVu42YFEgqzyp.jpg",
      "original_language": "en",
      "original_title": "Swiss Army Man",
      "genre_ids": [
        35,
        18,
        10749,
        14,
        12
      ],
      "backdrop_path": "/5X3Jc7EN4cQveQhbt0JUsD13jDp.jpg",
      "adult": false,
      "overview": "Alone on a tiny deserted island, Hank has given up all hope of ever making it home again. But one day everything changes when a dead body washes ashore, and he soon realizes it may be his last opportunity to escape certain death. Armed with his new “friend” and an unusual bag of tricks, the duo go on an epic adventure to bring Hank back to the woman of his dreams.",
      "release_date": "2016-06-24"
    },
    {
      "vote_count": 1391,
      "id": 11253,
      "video": false,
      "vote_average": 6.5,
      "title": "Hellboy II: The Golden Army",
      "popularity": 5.092152,
      "poster_path": "/fFcZqnWDeQsImDAAIyAimc3SGEl.jpg",
      "original_language": "en",
      "original_title": "Hellboy II: The Golden Army",
      "genre_ids": [
        12,
        14,
        878
      ],
      "backdrop_path": "/xmLknx6CZWemsRJn8QKjD9oh82V.jpg",
      "adult": false,
      "overview": "In this continuation to the adventure of the demon superhero, an evil elf breaks an ancient pact between humans and creatures, as he declares war against humanity. He is on a mission to release The Golden Army, a deadly group of fighting machines that can destroy the human race. As Hell on Earth is ready to erupt, Hellboy and his crew set out to defeat the evil prince.",
      "release_date": "2008-07-11"
    },
    {
      "vote_count": 72,
      "id": 332721,
      "video": false,
      "vote_average": 4.7,
      "title": "Dad's Army",
      "popularity": 1.848478,
      "poster_path": "/nv6fwHlQ6CVuUeCTQ88rK4IOTb.jpg",
      "original_language": "en",
      "original_title": "Dad's Army",
      "genre_ids": [
        35
      ],
      "backdrop_path": "/70loJS5za74GaaP2OLLpCyciiOY.jpg",
      "adult": false,
      "overview": "A cinema remake of the classic sitcom Dad's Army (1968). The Walmington-on-Sea Home Guard platoon deal with a visiting female journalist and a German spy as World War II draws to its conclusion.",
      "release_date": "2016-02-05"
    },
    {
      "vote_count": 65,
      "id": 153738,
      "video": false,
      "vote_average": 5.7,
      "title": "Frankenstein's Army",
      "popularity": 1.751577,
      "poster_path": "/AvTrBNQMwpl10I9eIbZ3GomuUC8.jpg",
      "original_language": "en",
      "original_title": "Frankenstein's Army",
      "genre_ids": [
        28,
        27
      ],
      "backdrop_path": "/2fwcrUNwBryBLRXL75S4jxW1ByM.jpg",
      "adult": false,
      "overview": "Toward the end of World War II, Russian soldiers pushing into eastern Germany stumble across a secret Nazi lab, one that has unearthed and begun experimenting with the journal of one Dr. Victor Frankenstein. The scientists have used the legendary Frankenstein's work to assemble an army of super-soldiers stitched together from the body parts of their fallen comrades -- a desperate Hitler's last ghastly ploy to escape defeat",
      "release_date": "2013-01-24"
    },
    {
      "vote_count": 50,
      "id": 256876,
      "video": false,
      "vote_average": 7.3,
      "title": "Red Army",
      "popularity": 1.637934,
      "poster_path": "/anI2SmhSQM7f2RXP98NkPv8b4js.jpg",
      "original_language": "en",
      "original_title": "Red Army",
      "genre_ids": [
        99,
        36
      ],
      "backdrop_path": "/dI84LmGgTPTLXBEO2xtMr8QJcJp.jpg",
      "adult": false,
      "overview": "From Oscar and Emmy award winning filmmakers, Red Army highlights the Soviet Union's legendary and enigmatic hockey training culture and world-dominating team through the eyes of the team's Captain Slava Fetisov, following his shift from hockey star and celebrated national hero to political enemy. The film turns a unique lens on the social and cultural transformation of the Soviet Union leading up to the fall of Communism, mirroring the rise and fall of the Red Army team.  A film by Gabe Polsky and Executive Producers Werner Herzog and Jerry Weintraub.",
      "release_date": "2014-08-13"
    },
    {
      "vote_count": 60,
      "id": 336445,
      "video": false,
      "vote_average": 5.5,
      "title": "Army of One",
      "popularity": 2.026828,
      "poster_path": "/qL4HCSbMSvpvrpIoIy8jmwoPfeY.jpg",
      "original_language": "en",
      "original_title": "Army of One",
      "genre_ids": [
        35
      ],
      "backdrop_path": "/y9eEBb0sWuQWszq3cyPNQEyQ86M.jpg",
      "adult": false,
      "overview": "Gary Faulkner is an ex-con, unemployed handyman, and modern day Don Quixote who receives a vision from God telling him to capture Osama Bin Laden. Armed with only a single sword purchased from a home-shopping network, Gary travels to Pakistan to complete his mission. While on his quest, Gary encounters old friends back home in Colorado, the new friends he makes in Pakistan, the enemies he makes at the CIA - and even God and Osama themselves.",
      "release_date": "2016-11-04"
    },
    {
      "vote_count": 3,
      "id": 18778,
      "video": false,
      "vote_average": 7.3,
      "title": "God's Army",
      "popularity": 1.225353,
      "poster_path": "/m7UfcHtoWnfdptmpT7zuqOLqAlg.jpg",
      "original_language": "en",
      "original_title": "God's Army",
      "genre_ids": [
        18
      ],
      "backdrop_path": "/jhu8Rgr9dkluMnrhx0gyLJjcos6.jpg",
      "adult": false,
      "overview": "Life as a Mormon missionary isn't what 19-year-old Brandon Allen expected: so many rules and so few successes. Los Angeles is as unrepentant as Sodom and Gomorrah. He's forced to share a small apartment with five young prank-loving missionaries and, to top it off, his first companion, 29-year-old Marcus Dalton, proves to be a harsh mentor. After only one day as a missionary, Allen is ready to hang up his necktie and go home. Allen becomes a part of the drama occurring under the everyday surface of missionary life. After only a few intense days, Allen finds faith he didn't know he had, and courage he didn't know he lacked. He learns that the time has come to put away childish things, and to become more than just a man--to become a man of God.",
      "release_date": "2000-03-10"
    },
    {
      "vote_count": 1,
      "id": 377206,
      "video": false,
      "vote_average": 5,
      "title": "Army Dog",
      "popularity": 1.285836,
      "poster_path": "/5DEd8Oaw8T2EKQkcPhE4a8JFFgI.jpg",
      "original_language": "en",
      "original_title": "Army Dog",
      "genre_ids": [
        28
      ],
      "backdrop_path": null,
      "adult": false,
      "overview": "A brave Army dog returns to the U.S., where he helps his heroic handler bond with his resentful daughter on a camping trip despite danger lurking around every corner.",
      "release_date": "2016-01-12"
    },
    {
      "vote_count": 0,
      "id": 401598,
      "video": false,
      "vote_average": 0,
      "title": "Army Intelligence",
      "popularity": 1.00018,
      "poster_path": "/bbA14Jk1sIajiVJTWoCIPQUO1Em.jpg",
      "original_language": "ja",
      "original_title": "陸軍諜報３３",
      "genre_ids": [
        53
      ],
      "backdrop_path": null,
      "adult": false,
      "overview": "Kazuo, a Japanese army intelligence agent, reveals a foreign intelligence network in Japan and then sent to Borneo Island with a special mission.",
      "release_date": "1968-02-09"
    },
    {
      "vote_count": 0,
      "id": 279061,
      "video": false,
      "vote_average": 0,
      "title": "Army Nurse",
      "popularity": 1.000108,
      "poster_path": null,
      "original_language": "en",
      "original_title": "Nu er lo",
      "genre_ids": [],
      "backdrop_path": null,
      "adult": false,
      "overview": "Directed by Mei Hu and Xiaojun Li.",
      "release_date": "1985-01-02"
    },
    {
      "vote_count": 52,
      "id": 20051,
      "video": false,
      "vote_average": 3.6,
      "title": "Dad's Army",
      "popularity": 1.141952,
      "poster_path": "/lXevO7nHBHWPuFynZb74zxZm5Vs.jpg",
      "original_language": "en",
      "original_title": "Dad's Army",
      "genre_ids": [
        35
      ],
      "backdrop_path": "/elEKr4J3G73CdtU63vhn4sninU6.jpg",
      "adult": false,
      "overview": "Dad's Army was a 1971 feature film based on the BBC television sitcom Dad's Army. Directed by Norman Cohen, it was filmed between series three and four and was based upon material from the early episodes of the television series. The film told the story of the Home Guard platoon's formation and their subsequent endeavours at a training exercise.",
      "release_date": "1971-03-12"
    },
    {
      "vote_count": 7,
      "id": 215960,
      "video": false,
      "vote_average": 5.7,
      "title": "Salvation Army",
      "popularity": 1.243189,
      "poster_path": "/2KI9rTWrFGphIfMqGbyObeQe14L.jpg",
      "original_language": "fr",
      "original_title": "L'Armée du Salut",
      "genre_ids": [
        18
      ],
      "backdrop_path": "/hcQb2FKsZYNbQKlcfoNyIOKTJAL.jpg",
      "adult": false,
      "overview": "Abdellah is a young gay man navigating the sexual, racial and political climate of Morocco. Growing up in a large family in a working-class neighborhood, Abdellah is caught between a distant father, an authoritarian mother, an older brother whom he adores and a handful of predatory older men, in a society that denies his homosexuality.",
      "release_date": "2014-05-07"
    },
    {
      "vote_count": 50,
      "id": 12475,
      "video": false,
      "vote_average": 4.7,
      "title": "In the Army Now",
      "popularity": 1.737679,
      "poster_path": "/j7306D476K6bIKKatGL7tLC26ro.jpg",
      "original_language": "en",
      "original_title": "In the Army Now",
      "genre_ids": [
        35
      ],
      "backdrop_path": "/uQpBJx7WCUUFMEqIpmxMfdZguQi.jpg",
      "adult": false,
      "overview": "Bones Conway and Jack Kaufman didn't really know what they were in for when they enlisted in the U.S. Army; they just wanted to get a job and make some money. But these new recruits are so hapless, they run the risk of getting kicked out before their military careers even begin. Soon, though, they're sent to the Middle East to fight for their country -- which they manage to do in their own wacky ways.",
      "release_date": "1994-08-12"
    },
    {
      "vote_count": 3,
      "id": 22739,
      "video": false,
      "vote_average": 6.2,
      "title": "Carter's Army",
      "popularity": 1.077422,
      "poster_path": "/ioXwCFFaaXR18ZWCol2LCrXphOe.jpg",
      "original_language": "en",
      "original_title": "Carter's Army",
      "genre_ids": [
        28,
        18,
        53,
        10770,
        10752
      ],
      "backdrop_path": "/3jgjMSF5OeG8m2LV0hQOTewOsDa.jpg",
      "adult": false,
      "overview": "The officer (Stephen Boyd) is put in charge of a squad of all black troops charged with the mission of blowing up an important hydro dam in Nazi Germany. Their failure would delay the Allies advance into Germany, thus prolonging the war. These African-Americans a have little military training, but Captain Beau Carter has no choice. He leads the rag-tag and they turn out to be heroic.",
      "release_date": "1970-01-27"
    },
    {
      "vote_count": 2,
      "id": 316462,
      "video": false,
      "vote_average": 5.5,
      "title": "Army Surgeon",
      "popularity": 1.135718,
      "poster_path": "/1sPeWqsOyqvB2dzQxKVrn0FThkI.jpg",
      "original_language": "en",
      "original_title": "Army Surgeon",
      "genre_ids": [
        18,
        10749,
        10752
      ],
      "backdrop_path": "/pV8XGjpAo9HDsTNuSLSooGFu9iy.jpg",
      "adult": false,
      "overview": "Drama about military doctors and nurses during wartime.",
      "release_date": "1942-12-04"
    },
    {
      "vote_count": 0,
      "id": 468892,
      "video": true,
      "vote_average": 0,
      "title": "The Founding Of An Army",
      "popularity": 3.4122,
      "poster_path": "/Tlwu3VZRLVBuVcBRYyhDdCrLey.jpg",
      "original_language": "zh",
      "original_title": "建军大业 - Jiànjūn Dàyè",
      "genre_ids": [
        18,
        36
      ],
      "backdrop_path": "/mNqEI3MjzhkFVWNcUD5U8UysHuU.jpg",
      "adult": false,
      "overview": "The Founding of an Army is a Chinese historical propaganda film. Produced by Han Sanping and directed by Andrew Lau, it is the third installment of the trilogy called Founding of New China after",
      "release_date": "2017-08-01"
    },
    {
      "vote_count": 0,
      "id": 285410,
      "video": false,
      "vote_average": 0,
      "title": "Touchdown, Army",
      "popularity": 1.119672,
      "poster_path": "/mCsR1u3yGukNzMq0qpZjZfHoDlm.jpg",
      "original_language": "en",
      "original_title": "Touchdown, Army",
      "genre_ids": [
        18,
        35
      ],
      "backdrop_path": "/4NnNqgxPbyLrx16KaflyGDB7nUY.jpg",
      "adult": false,
      "overview": "Prep football star Jimmy Howal gets a reception far different from what he expected when he enters West Point.",
      "release_date": "1938-08-04"
    }
  ]
}